processador GE_22/Componentes GE_22/unidade_controle/simulation/qsim/unidade_controle.msim.vcd
$comment
	File created using the following command:
		vcd file unidade_controle.msim.vcd -direction
$end
$date
	Wed Mar 09 11:14:08 2022
$end
$version
	ModelSim Version 10.5b
$end
$timescale
	1ps
$end

$scope module unidade_controle_vhd_vec_tst $end
$var wire 1 ! branch $end
$var wire 1 " clock $end
$var wire 1 # jump $end
$var wire 1 $ mem_read $end
$var wire 1 % mem_to_reg $end
$var wire 1 & mem_write $end
$var wire 1 ' op_code [3] $end
$var wire 1 ( op_code [2] $end
$var wire 1 ) op_code [1] $end
$var wire 1 * op_code [0] $end
$var wire 1 + reg_write $end
$var wire 1 , ula_op [3] $end
$var wire 1 - ula_op [2] $end
$var wire 1 . ula_op [1] $end
$var wire 1 / ula_op [0] $end
$var wire 1 0 ula_src $end

$scope module i1 $end
$var wire 1 1 gnd $end
$var wire 1 2 vcc $end
$var wire 1 3 unknown $end
$var wire 1 4 devoe $end
$var wire 1 5 devclrn $end
$var wire 1 6 devpor $end
$var wire 1 7 ww_devoe $end
$var wire 1 8 ww_devclrn $end
$var wire 1 9 ww_devpor $end
$var wire 1 : ww_clock $end
$var wire 1 ; ww_op_code [3] $end
$var wire 1 < ww_op_code [2] $end
$var wire 1 = ww_op_code [1] $end
$var wire 1 > ww_op_code [0] $end
$var wire 1 ? ww_jump $end
$var wire 1 @ ww_branch $end
$var wire 1 A ww_mem_read $end
$var wire 1 B ww_mem_to_reg $end
$var wire 1 C ww_ula_op [3] $end
$var wire 1 D ww_ula_op [2] $end
$var wire 1 E ww_ula_op [1] $end
$var wire 1 F ww_ula_op [0] $end
$var wire 1 G ww_mem_write $end
$var wire 1 H ww_ula_src $end
$var wire 1 I ww_reg_write $end
$var wire 1 J \clock~input_o\ $end
$var wire 1 K \jump~output_o\ $end
$var wire 1 L \branch~output_o\ $end
$var wire 1 M \mem_read~output_o\ $end
$var wire 1 N \mem_to_reg~output_o\ $end
$var wire 1 O \ula_op[0]~output_o\ $end
$var wire 1 P \ula_op[1]~output_o\ $end
$var wire 1 Q \ula_op[2]~output_o\ $end
$var wire 1 R \ula_op[3]~output_o\ $end
$var wire 1 S \mem_write~output_o\ $end
$var wire 1 T \ula_src~output_o\ $end
$var wire 1 U \reg_write~output_o\ $end
$var wire 1 V \op_code[0]~input_o\ $end
$var wire 1 W \op_code[1]~input_o\ $end
$var wire 1 X \op_code[3]~input_o\ $end
$var wire 1 Y \op_code[2]~input_o\ $end
$var wire 1 Z \Mux0~0_combout\ $end
$var wire 1 [ \Mux1~0_combout\ $end
$var wire 1 \ \Mux2~0_combout\ $end
$var wire 1 ] \Mux7~0_combout\ $end
$var wire 1 ^ \Mux6~0_combout\ $end
$var wire 1 _ \Mux5~0_combout\ $end
$var wire 1 ` \Mux4~0_combout\ $end
$var wire 1 a \Mux8~0_combout\ $end
$var wire 1 b \Mux9~0_combout\ $end
$var wire 1 c \Mux10~0_combout\ $end
$var wire 1 d \ALT_INV_Mux10~0_combout\ $end
$upscope $end
$upscope $end
$enddefinitions $end
#0
$dumpvars
0!
0"
0#
0$
0%
0&
1+
00
01
12
x3
14
15
16
17
18
19
0:
0?
0@
0A
0B
0G
0H
1I
0J
0K
0L
0M
0N
0O
0P
0Q
0R
0S
0T
1U
0V
0W
0X
0Y
0Z
0[
0\
0]
0^
0_
0`
0a
0b
0c
1d
0'
0(
0)
0*
0;
0<
0=
0>
0C
0D
0E
0F
0,
0-
0.
0/
$end
#50000
1*
1>
1V
1]
1b
1T
1O
1H
1F
10
1/
#100000
0*
1)
0>
1=
1W
0V
0]
1^
0b
0T
1P
0O
0H
1E
0F
00
0/
1.
#150000
1*
1>
1V
1]
1b
1T
1O
1H
1F
10
1/
#200000
0*
0)
1"
1(
0>
0=
1<
1:
1J
1Y
0W
0V
1\
0]
0^
1_
0b
0T
1Q
0P
0O
1M
1N
0H
1D
0E
0F
1A
1B
00
0/
0.
1-
1$
1%
#250000
1*
1>
1V
0\
1]
1a
1c
0d
1S
1O
0M
0N
0U
1G
1F
0A
0B
0I
1&
1/
0$
0%
0+
#300000
0*
1)
0>
1=
1W
0V
1^
0a
1b
0c
1d
1T
0S
1P
1U
1H
0G
1E
1I
10
0&
1.
1+
#350000
1*
1>
1V
1[
0]
0^
0_
1`
0b
1c
0d
0T
1R
0Q
0P
0O
1L
0U
0H
1C
0D
0E
0F
1@
0I
00
0/
0.
0-
1,
1!
0+
#400000
0*
0)
0"
0(
1'
0>
0=
0<
1;
0:
0J
1X
0Y
0W
0V
1]
1O
1F
1/
#450000
1*
1>
1V
0[
0]
1^
1P
0O
0L
1E
0F
0@
0/
1.
0!
#500000
0*
1)
0>
1=
1W
0V
1]
0c
1d
1O
1U
1F
1I
1/
1+
#550000
1*
1>
1V
1Z
1_
1c
0d
1Q
1K
0U
1D
1?
0I
1-
1#
0+
#600000
0*
0)
1"
1(
0>
0=
1<
1:
1J
1Y
0W
0V
0Z
0K
0?
0#
#650000
1*
1>
1V
#700000
0*
1)
0>
1=
1W
0V
#750000
1*
1>
1V
#800000
0*
0)
0"
0(
0'
0>
0=
0<
0;
0:
0J
0X
0Y
0W
0V
0]
0^
0_
0`
0c
1d
0R
0Q
0P
0O
1U
0C
0D
0E
0F
1I
0/
0.
0-
0,
1+
#850000
1*
1>
1V
1]
1b
1T
1O
1H
1F
10
1/
#900000
0*
1)
0>
1=
1W
0V
0]
1^
0b
0T
1P
0O
0H
1E
0F
00
0/
1.
#950000
1*
1>
1V
1]
1b
1T
1O
1H
1F
10
1/
