processador GE_22/Componentes GE_22/mult_2x1/simulation/qsim/mult_2x1.msim.vcd
$comment
	File created using the following command:
		vcd file mult_2x1.msim.vcd -direction
$end
$date
	Tue Mar 08 09:59:18 2022
$end
$version
	ModelSim Version 10.5b
$end
$timescale
	1ps
$end

$scope module mult_2x1_vhd_vec_tst $end
$var wire 1 ! in_A [7] $end
$var wire 1 " in_A [6] $end
$var wire 1 # in_A [5] $end
$var wire 1 $ in_A [4] $end
$var wire 1 % in_A [3] $end
$var wire 1 & in_A [2] $end
$var wire 1 ' in_A [1] $end
$var wire 1 ( in_A [0] $end
$var wire 1 ) in_B [7] $end
$var wire 1 * in_B [6] $end
$var wire 1 + in_B [5] $end
$var wire 1 , in_B [4] $end
$var wire 1 - in_B [3] $end
$var wire 1 . in_B [2] $end
$var wire 1 / in_B [1] $end
$var wire 1 0 in_B [0] $end
$var wire 1 1 in_port $end
$var wire 1 2 out_port [7] $end
$var wire 1 3 out_port [6] $end
$var wire 1 4 out_port [5] $end
$var wire 1 5 out_port [4] $end
$var wire 1 6 out_port [3] $end
$var wire 1 7 out_port [2] $end
$var wire 1 8 out_port [1] $end
$var wire 1 9 out_port [0] $end

$scope module i1 $end
$var wire 1 : gnd $end
$var wire 1 ; vcc $end
$var wire 1 < unknown $end
$var wire 1 = devoe $end
$var wire 1 > devclrn $end
$var wire 1 ? devpor $end
$var wire 1 @ ww_devoe $end
$var wire 1 A ww_devclrn $end
$var wire 1 B ww_devpor $end
$var wire 1 C ww_in_port $end
$var wire 1 D ww_in_A [7] $end
$var wire 1 E ww_in_A [6] $end
$var wire 1 F ww_in_A [5] $end
$var wire 1 G ww_in_A [4] $end
$var wire 1 H ww_in_A [3] $end
$var wire 1 I ww_in_A [2] $end
$var wire 1 J ww_in_A [1] $end
$var wire 1 K ww_in_A [0] $end
$var wire 1 L ww_in_B [7] $end
$var wire 1 M ww_in_B [6] $end
$var wire 1 N ww_in_B [5] $end
$var wire 1 O ww_in_B [4] $end
$var wire 1 P ww_in_B [3] $end
$var wire 1 Q ww_in_B [2] $end
$var wire 1 R ww_in_B [1] $end
$var wire 1 S ww_in_B [0] $end
$var wire 1 T ww_out_port [7] $end
$var wire 1 U ww_out_port [6] $end
$var wire 1 V ww_out_port [5] $end
$var wire 1 W ww_out_port [4] $end
$var wire 1 X ww_out_port [3] $end
$var wire 1 Y ww_out_port [2] $end
$var wire 1 Z ww_out_port [1] $end
$var wire 1 [ ww_out_port [0] $end
$var wire 1 \ \out_port[0]~output_o\ $end
$var wire 1 ] \out_port[1]~output_o\ $end
$var wire 1 ^ \out_port[2]~output_o\ $end
$var wire 1 _ \out_port[3]~output_o\ $end
$var wire 1 ` \out_port[4]~output_o\ $end
$var wire 1 a \out_port[5]~output_o\ $end
$var wire 1 b \out_port[6]~output_o\ $end
$var wire 1 c \out_port[7]~output_o\ $end
$var wire 1 d \in_B[0]~input_o\ $end
$var wire 1 e \in_A[0]~input_o\ $end
$var wire 1 f \in_port~input_o\ $end
$var wire 1 g \out_port~0_combout\ $end
$var wire 1 h \in_B[1]~input_o\ $end
$var wire 1 i \in_A[1]~input_o\ $end
$var wire 1 j \out_port~1_combout\ $end
$var wire 1 k \in_B[2]~input_o\ $end
$var wire 1 l \in_A[2]~input_o\ $end
$var wire 1 m \out_port~2_combout\ $end
$var wire 1 n \in_B[3]~input_o\ $end
$var wire 1 o \in_A[3]~input_o\ $end
$var wire 1 p \out_port~3_combout\ $end
$var wire 1 q \in_B[4]~input_o\ $end
$var wire 1 r \in_A[4]~input_o\ $end
$var wire 1 s \out_port~4_combout\ $end
$var wire 1 t \in_B[5]~input_o\ $end
$var wire 1 u \in_A[5]~input_o\ $end
$var wire 1 v \out_port~5_combout\ $end
$var wire 1 w \in_B[6]~input_o\ $end
$var wire 1 x \in_A[6]~input_o\ $end
$var wire 1 y \out_port~6_combout\ $end
$var wire 1 z \in_B[7]~input_o\ $end
$var wire 1 { \in_A[7]~input_o\ $end
$var wire 1 | \out_port~7_combout\ $end
$upscope $end
$upscope $end
$enddefinitions $end
#0
$dumpvars
01
0:
1;
x<
1=
1>
1?
1@
1A
1B
0C
0\
0]
0^
0_
0`
0a
0b
0c
0d
0e
0f
0g
0h
0i
0j
0k
0l
0m
0n
0o
0p
0q
0r
0s
0t
0u
0v
0w
0x
0y
0z
0{
0|
0!
0"
0#
0$
0%
0&
0'
0(
0)
0*
0+
0,
0-
0.
0/
00
0D
0E
0F
0G
0H
0I
0J
0K
0L
0M
0N
0O
0P
0Q
0R
0S
0T
0U
0V
0W
0X
0Y
0Z
0[
02
03
04
05
06
07
08
09
$end
#100000
1(
1K
1e
1g
1\
1[
19
#150000
11
1C
1f
0g
0\
0[
09
#200000
0(
1'
10
0K
1J
1S
1d
1i
0e
1g
1\
1[
19
#300000
1(
01
1K
0C
0f
1e
1j
1]
1Z
18
#400000
0(
0'
00
1&
1/
0K
0J
1I
0S
1R
1h
0d
1l
0i
0e
1m
0g
0j
0]
0\
1^
0Z
0[
1Y
09
08
17
#450000
11
1C
1f
1j
0m
0^
1]
0Y
1Z
18
07
#500000
1(
1K
1e
#600000
0(
01
1'
10
0K
1J
0C
1S
1d
0f
1i
0e
1m
1^
1Y
17
#700000
1(
1K
1e
1g
1\
1[
19
#750000
11
1C
1f
0m
0^
0Y
07
#800000
0(
0'
00
0&
0/
1%
1.
0K
0J
0I
1H
0S
0R
1Q
1k
0h
0d
1o
0l
0i
0e
0g
0j
1m
1^
0]
0\
1Y
0Z
0[
09
08
17
#900000
1(
01
1K
0C
0f
1e
1g
0m
1p
1_
0^
1\
1X
0Y
1[
19
07
16
