processador GE_22/Componentes GE_22/extensor_sinal4_8/simulation/qsim/extensor_sinal4_8.msim.vcd
$comment
	File created using the following command:
		vcd file extensor_sinal4_8.msim.vcd -direction
$end
$date
	Tue Mar 08 10:10:12 2022
$end
$version
	ModelSim Version 10.5b
$end
$timescale
	1ps
$end

$scope module extensor_sinal4_8_vhd_vec_tst $end
$var wire 1 ! in_port [3] $end
$var wire 1 " in_port [2] $end
$var wire 1 # in_port [1] $end
$var wire 1 $ in_port [0] $end
$var wire 1 % out_port [7] $end
$var wire 1 & out_port [6] $end
$var wire 1 ' out_port [5] $end
$var wire 1 ( out_port [4] $end
$var wire 1 ) out_port [3] $end
$var wire 1 * out_port [2] $end
$var wire 1 + out_port [1] $end
$var wire 1 , out_port [0] $end

$scope module i1 $end
$var wire 1 - gnd $end
$var wire 1 . vcc $end
$var wire 1 / unknown $end
$var wire 1 0 devoe $end
$var wire 1 1 devclrn $end
$var wire 1 2 devpor $end
$var wire 1 3 ww_devoe $end
$var wire 1 4 ww_devclrn $end
$var wire 1 5 ww_devpor $end
$var wire 1 6 ww_in_port [3] $end
$var wire 1 7 ww_in_port [2] $end
$var wire 1 8 ww_in_port [1] $end
$var wire 1 9 ww_in_port [0] $end
$var wire 1 : ww_out_port [7] $end
$var wire 1 ; ww_out_port [6] $end
$var wire 1 < ww_out_port [5] $end
$var wire 1 = ww_out_port [4] $end
$var wire 1 > ww_out_port [3] $end
$var wire 1 ? ww_out_port [2] $end
$var wire 1 @ ww_out_port [1] $end
$var wire 1 A ww_out_port [0] $end
$var wire 1 B \out_port[0]~output_o\ $end
$var wire 1 C \out_port[1]~output_o\ $end
$var wire 1 D \out_port[2]~output_o\ $end
$var wire 1 E \out_port[3]~output_o\ $end
$var wire 1 F \out_port[4]~output_o\ $end
$var wire 1 G \out_port[5]~output_o\ $end
$var wire 1 H \out_port[6]~output_o\ $end
$var wire 1 I \out_port[7]~output_o\ $end
$var wire 1 J \in_port[0]~input_o\ $end
$var wire 1 K \in_port[1]~input_o\ $end
$var wire 1 L \in_port[2]~input_o\ $end
$var wire 1 M \in_port[3]~input_o\ $end
$upscope $end
$upscope $end
$enddefinitions $end
#0
$dumpvars
0-
1.
x/
10
11
12
13
14
15
0B
0C
0D
0E
0F
0G
0H
0I
0J
0K
0L
0M
0!
0"
0#
0$
06
07
08
09
0:
0;
0<
0=
0>
0?
0@
0A
0%
0&
0'
0(
0)
0*
0+
0,
$end
#10000
1$
19
1J
1B
1A
1,
#20000
0$
1#
09
18
1K
0J
0B
1C
0A
1@
0,
1+
#30000
1$
19
1J
1B
1A
1,
#40000
0$
0#
1"
09
08
17
1L
0K
0J
0B
0C
1D
0A
0@
1?
0,
0+
1*
#50000
1$
19
1J
1B
1A
1,
#60000
0$
1#
09
18
1K
0J
0B
1C
0A
1@
0,
1+
#70000
1$
19
1J
1B
1A
1,
#80000
0$
0#
0"
1!
09
08
07
16
1M
0L
0K
0J
0B
0C
0D
1E
0A
0@
0?
1>
0,
0+
0*
1)
#90000
1$
19
1J
1B
1A
1,
#100000
0$
1#
09
18
1K
0J
0B
1C
0A
1@
0,
1+
#110000
1$
19
1J
1B
1A
1,
#120000
0$
0#
1"
09
08
17
1L
0K
0J
0B
0C
1D
0A
0@
1?
0,
0+
1*
#130000
1$
19
1J
1B
1A
1,
#140000
0$
1#
09
18
1K
0J
0B
1C
0A
1@
0,
1+
#150000
1$
19
1J
1B
1A
1,
#160000
0$
0#
0"
0!
09
08
07
06
0M
0L
0K
0J
0B
0C
0D
0E
0A
0@
0?
0>
0,
0+
0*
0)
#170000
1$
19
1J
1B
1A
1,
#180000
0$
1#
09
18
1K
0J
0B
1C
0A
1@
0,
1+
#190000
1$
19
1J
1B
1A
1,
#200000
0$
0#
1"
09
08
17
1L
0K
0J
0B
0C
1D
0A
0@
1?
0,
0+
1*
#210000
1$
19
1J
1B
1A
1,
#220000
0$
1#
09
18
1K
0J
0B
1C
0A
1@
0,
1+
#230000
1$
19
1J
1B
1A
1,
#240000
0$
0#
0"
1!
09
08
07
16
1M
0L
0K
0J
0B
0C
0D
1E
0A
0@
0?
1>
0,
0+
0*
1)
#250000
1$
19
1J
1B
1A
1,
#260000
0$
1#
09
18
1K
0J
0B
1C
0A
1@
0,
1+
#270000
1$
19
1J
1B
1A
1,
#280000
0$
0#
1"
09
08
17
1L
0K
0J
0B
0C
1D
0A
0@
1?
0,
0+
1*
#290000
1$
19
1J
1B
1A
1,
#300000
0$
1#
09
18
1K
0J
0B
1C
0A
1@
0,
1+
#310000
1$
19
1J
1B
1A
1,
#320000
0$
0#
0"
0!
09
08
07
06
0M
0L
0K
0J
0B
0C
0D
0E
0A
0@
0?
0>
0,
0+
0*
0)
#330000
1$
19
1J
1B
1A
1,
#340000
0$
1#
09
18
1K
0J
0B
1C
0A
1@
0,
1+
#350000
1$
19
1J
1B
1A
1,
#360000
0$
0#
1"
09
08
17
1L
0K
0J
0B
0C
1D
0A
0@
1?
0,
0+
1*
#370000
1$
19
1J
1B
1A
1,
#380000
0$
1#
09
18
1K
0J
0B
1C
0A
1@
0,
1+
#390000
1$
19
1J
1B
1A
1,
#400000
0$
0#
0"
1!
09
08
07
16
1M
0L
0K
0J
0B
0C
0D
1E
0A
0@
0?
1>
0,
0+
0*
1)
#410000
1$
19
1J
1B
1A
1,
#420000
0$
1#
09
18
1K
0J
0B
1C
0A
1@
0,
1+
#430000
1$
19
1J
1B
1A
1,
#440000
0$
0#
1"
09
08
17
1L
0K
0J
0B
0C
1D
0A
0@
1?
0,
0+
1*
#450000
1$
19
1J
1B
1A
1,
#460000
0$
1#
09
18
1K
0J
0B
1C
0A
1@
0,
1+
#470000
1$
19
1J
1B
1A
1,
#480000
0$
0#
0"
0!
09
08
07
06
0M
0L
0K
0J
0B
0C
0D
0E
0A
0@
0?
0>
0,
0+
0*
0)
#490000
1$
19
1J
1B
1A
1,
#500000
0$
1#
09
18
1K
0J
0B
1C
0A
1@
0,
1+
#510000
1$
19
1J
1B
1A
1,
#520000
0$
0#
1"
09
08
17
1L
0K
0J
0B
0C
1D
0A
0@
1?
0,
0+
1*
#530000
1$
19
1J
1B
1A
1,
#540000
0$
1#
09
18
1K
0J
0B
1C
0A
1@
0,
1+
#550000
1$
19
1J
1B
1A
1,
#560000
0$
0#
0"
1!
09
08
07
16
1M
0L
0K
0J
0B
0C
0D
1E
0A
0@
0?
1>
0,
0+
0*
1)
#570000
1$
19
1J
1B
1A
1,
#580000
0$
1#
09
18
1K
0J
0B
1C
0A
1@
0,
1+
#590000
1$
19
1J
1B
1A
1,
#600000
0$
0#
1"
09
08
17
1L
0K
0J
0B
0C
1D
0A
0@
1?
0,
0+
1*
#610000
1$
19
1J
1B
1A
1,
#620000
0$
1#
09
18
1K
0J
0B
1C
0A
1@
0,
1+
#630000
1$
19
1J
1B
1A
1,
#640000
0$
0#
0"
0!
09
08
07
06
0M
0L
0K
0J
0B
0C
0D
0E
0A
0@
0?
0>
0,
0+
0*
0)
#650000
1$
19
1J
1B
1A
1,
#660000
0$
1#
09
18
1K
0J
0B
1C
0A
1@
0,
1+
#670000
1$
19
1J
1B
1A
1,
#680000
0$
0#
1"
09
08
17
1L
0K
0J
0B
0C
1D
0A
0@
1?
0,
0+
1*
#690000
1$
19
1J
1B
1A
1,
#700000
0$
1#
09
18
1K
0J
0B
1C
0A
1@
0,
1+
#710000
1$
19
1J
1B
1A
1,
#720000
0$
0#
0"
1!
09
08
07
16
1M
0L
0K
0J
0B
0C
0D
1E
0A
0@
0?
1>
0,
0+
0*
1)
#730000
1$
19
1J
1B
1A
1,
#740000
0$
1#
09
18
1K
0J
0B
1C
0A
1@
0,
1+
#750000
1$
19
1J
1B
1A
1,
#760000
0$
0#
1"
09
08
17
1L
0K
0J
0B
0C
1D
0A
0@
1?
0,
0+
1*
#770000
1$
19
1J
1B
1A
1,
#780000
0$
1#
09
18
1K
0J
0B
1C
0A
1@
0,
1+
#790000
1$
19
1J
1B
1A
1,
#800000
0$
0#
0"
0!
09
08
07
06
0M
0L
0K
0J
0B
0C
0D
0E
0A
0@
0?
0>
0,
0+
0*
0)
#810000
1$
19
1J
1B
1A
1,
#820000
0$
1#
09
18
1K
0J
0B
1C
0A
1@
0,
1+
#830000
1$
19
1J
1B
1A
1,
#840000
0$
0#
1"
09
08
17
1L
0K
0J
0B
0C
1D
0A
0@
1?
0,
0+
1*
#850000
1$
19
1J
1B
1A
1,
#860000
0$
1#
09
18
1K
0J
0B
1C
0A
1@
0,
1+
#870000
1$
19
1J
1B
1A
1,
#880000
0$
0#
0"
1!
09
08
07
16
1M
0L
0K
0J
0B
0C
0D
1E
0A
0@
0?
1>
0,
0+
0*
1)
#890000
1$
19
1J
1B
1A
1,
#900000
0$
1#
09
18
1K
0J
0B
1C
0A
1@
0,
1+
#910000
1$
19
1J
1B
1A
1,
#920000
0$
0#
1"
09
08
17
1L
0K
0J
0B
0C
1D
0A
0@
1?
0,
0+
1*
#930000
1$
19
1J
1B
1A
1,
#940000
0$
1#
09
18
1K
0J
0B
1C
0A
1@
0,
1+
#950000
1$
19
1J
1B
1A
1,
#960000
0$
0#
0"
0!
09
08
07
06
0M
0L
0K
0J
0B
0C
0D
0E
0A
0@
0?
0>
0,
0+
0*
0)
#970000
1$
19
1J
1B
1A
1,
#980000
0$
1#
09
18
1K
0J
0B
1C
0A
1@
0,
1+
#990000
1$
19
1J
1B
1A
1,
