processador GE_22/Componentes GE_22/portAnd/simulation/qsim/portAnd.msim.vcd
$comment
	File created using the following command:
		vcd file portAnd.msim.vcd -direction
$end
$date
	Tue Mar 08 09:53:13 2022
$end
$version
	ModelSim Version 10.5b
$end
$timescale
	1ps
$end

$scope module portand_vhd_vec_tst $end
$var wire 1 ! in_port_A $end
$var wire 1 " in_port_B $end
$var wire 1 # out_port $end

$scope module i1 $end
$var wire 1 $ gnd $end
$var wire 1 % vcc $end
$var wire 1 & unknown $end
$var wire 1 ' devoe $end
$var wire 1 ( devclrn $end
$var wire 1 ) devpor $end
$var wire 1 * ww_devoe $end
$var wire 1 + ww_devclrn $end
$var wire 1 , ww_devpor $end
$var wire 1 - ww_in_port_A $end
$var wire 1 . ww_in_port_B $end
$var wire 1 / ww_out_port $end
$var wire 1 0 \out_port~output_o\ $end
$var wire 1 1 \in_port_A~input_o\ $end
$var wire 1 2 \in_port_B~input_o\ $end
$var wire 1 3 \out_port~0_combout\ $end
$upscope $end
$upscope $end
$enddefinitions $end
#0
$dumpvars
0!
0"
0#
0$
1%
x&
1'
1(
1)
1*
1+
1,
0-
0.
0/
00
01
02
03
$end
#100000
1!
1-
11
#200000
0!
1"
0-
1.
12
01
#300000
1!
1-
11
13
10
1/
1#
#400000
0!
0"
0-
0.
02
01
03
00
0/
0#
#500000
1!
1-
11
#600000
0!
1"
0-
1.
12
01
#700000
1!
1-
11
13
10
1/
1#
#800000
0!
0"
0-
0.
02
01
03
00
0/
0#
#900000
1!
1-
11
