processador GE_22/Componentes GE_22/extensor_sinal2_8/simulation/qsim/extensor_sinal2_8.msim.vcd
$comment
	File created using the following command:
		vcd file extensor_sinal2_8.msim.vcd -direction
$end
$date
	Tue Mar 08 10:02:45 2022
$end
$version
	ModelSim Version 10.5b
$end
$timescale
	1ps
$end

$scope module extensor_sinal2_8_vhd_vec_tst $end
$var wire 1 ! in_port [1] $end
$var wire 1 " in_port [0] $end
$var wire 1 # out_port [7] $end
$var wire 1 $ out_port [6] $end
$var wire 1 % out_port [5] $end
$var wire 1 & out_port [4] $end
$var wire 1 ' out_port [3] $end
$var wire 1 ( out_port [2] $end
$var wire 1 ) out_port [1] $end
$var wire 1 * out_port [0] $end

$scope module i1 $end
$var wire 1 + gnd $end
$var wire 1 , vcc $end
$var wire 1 - unknown $end
$var wire 1 . devoe $end
$var wire 1 / devclrn $end
$var wire 1 0 devpor $end
$var wire 1 1 ww_devoe $end
$var wire 1 2 ww_devclrn $end
$var wire 1 3 ww_devpor $end
$var wire 1 4 ww_in_port [1] $end
$var wire 1 5 ww_in_port [0] $end
$var wire 1 6 ww_out_port [7] $end
$var wire 1 7 ww_out_port [6] $end
$var wire 1 8 ww_out_port [5] $end
$var wire 1 9 ww_out_port [4] $end
$var wire 1 : ww_out_port [3] $end
$var wire 1 ; ww_out_port [2] $end
$var wire 1 < ww_out_port [1] $end
$var wire 1 = ww_out_port [0] $end
$var wire 1 > \out_port[0]~output_o\ $end
$var wire 1 ? \out_port[1]~output_o\ $end
$var wire 1 @ \out_port[2]~output_o\ $end
$var wire 1 A \out_port[3]~output_o\ $end
$var wire 1 B \out_port[4]~output_o\ $end
$var wire 1 C \out_port[5]~output_o\ $end
$var wire 1 D \out_port[6]~output_o\ $end
$var wire 1 E \out_port[7]~output_o\ $end
$var wire 1 F \in_port[0]~input_o\ $end
$var wire 1 G \in_port[1]~input_o\ $end
$upscope $end
$upscope $end
$enddefinitions $end
#0
$dumpvars
0+
1,
x-
1.
1/
10
11
12
13
0>
0?
0@
0A
0B
0C
0D
0E
0F
0G
0!
0"
04
05
06
07
08
09
0:
0;
0<
0=
0#
0$
0%
0&
0'
0(
0)
0*
$end
#100000
1"
15
1F
1>
1=
1*
#200000
0"
1!
05
14
1G
0F
0>
1?
0=
1<
0*
1)
#300000
1"
15
1F
1>
1=
1*
#400000
0"
0!
05
04
0G
0F
0>
0?
0=
0<
0*
0)
#500000
1"
15
1F
1>
1=
1*
#600000
0"
1!
05
14
1G
0F
0>
1?
0=
1<
0*
1)
#700000
1"
15
1F
1>
1=
1*
#800000
0"
0!
05
04
0G
0F
0>
0?
0=
0<
0*
0)
#900000
1"
15
1F
1>
1=
1*
